Id,FullName,Email,Phone
1,Hassan Adams,HassanAdams.Von77@gmail.com,1-411-829-9777
2,Mandy Nitzsche,MandyNitzsche19@hotmail.com,1-210-372-0592
3,Dayton Carroll,DaytonCarroll_Wuckert32@gmail.com,1-927-719-5545
4,Levi Schamberger,LeviSchamberger.Torphy80@yahoo.com,1-878-101-1699
5,Monique Stoltenberg,MoniqueStoltenberg93@yahoo.com,1-392-241-2582
6,Murray Jacobson,MurrayJacobson.Little@hotmail.com,1-741-982-8061
7,Davion Wiegand,DavionWiegand_Padberg53@hotmail.com,1-819-603-7532
8,Onie Jones,OnieJones_Towne@hotmail.com,1-410-610-0026
9,Eula Stoltenberg,EulaStoltenberg32@gmail.com,1-988-446-6044
